{
  "swagger": "2.0",
  "info": {
    "title": "service.proto",
    "version": "version not set"
  },
  "schemes": [
    "http",
    "https"
  ],
  "consumes": [
    "application/json"
  ],
  "produces": [
    "application/json"
  ],
  "paths": {
    "/Gallery/add": {
      "post": {
        "operationId": "Add",
        "responses": {
          "200": {
            "description": "",
            "schema": {
              "$ref": "#/definitions/galleryResponseProcessGallery"
            }
          }
        },
        "parameters": [
          {
            "name": "body",
            "in": "body",
            "required": true,
            "schema": {
              "$ref": "#/definitions/galleryRequestProcessGallery"
            }
          }
        ],
        "tags": [
          "ServiceGallery"
        ]
      }
    },
    "/Gallery/findall": {
      "post": {
        "operationId": "FindAll",
        "responses": {
          "200": {
            "description": "(streaming responses)",
            "schema": {
              "$ref": "#/definitions/galleryResponseFindAllGallery"
            }
          }
        },
        "parameters": [
          {
            "name": "body",
            "in": "body",
            "required": true,
            "schema": {
              "$ref": "#/definitions/galleryRequestFindAllGallery"
            }
          }
        ],
        "tags": [
          "ServiceGallery"
        ]
      }
    },
    "/Gallery/findone": {
      "post": {
        "operationId": "FindOne",
        "responses": {
          "200": {
            "description": "",
            "schema": {
              "$ref": "#/definitions/galleryResponseFindOneGallery"
            }
          }
        },
        "parameters": [
          {
            "name": "body",
            "in": "body",
            "required": true,
            "schema": {
              "$ref": "#/definitions/galleryRequestFindOneGallery"
            }
          }
        ],
        "tags": [
          "ServiceGallery"
        ]
      }
    },
    "/Gallery/remove": {
      "post": {
        "operationId": "Remove",
        "responses": {
          "200": {
            "description": "",
            "schema": {
              "$ref": "#/definitions/galleryResponseProcessGallery"
            }
          }
        },
        "parameters": [
          {
            "name": "body",
            "in": "body",
            "required": true,
            "schema": {
              "$ref": "#/definitions/galleryRequestProcessGallery"
            }
          }
        ],
        "tags": [
          "ServiceGallery"
        ]
      }
    },
    "/Gallery/rollback": {
      "post": {
        "operationId": "Rollback",
        "responses": {
          "200": {
            "description": "",
            "schema": {
              "$ref": "#/definitions/galleryResponseRollbackGallery"
            }
          }
        },
        "parameters": [
          {
            "name": "body",
            "in": "body",
            "required": true,
            "schema": {
              "$ref": "#/definitions/galleryRequestRollbackGallery"
            }
          }
        ],
        "tags": [
          "ServiceGallery"
        ]
      }
    },
    "/Gallery/update": {
      "post": {
        "operationId": "Update",
        "responses": {
          "200": {
            "description": "",
            "schema": {
              "$ref": "#/definitions/galleryResponseProcessGallery"
            }
          }
        },
        "parameters": [
          {
            "name": "body",
            "in": "body",
            "required": true,
            "schema": {
              "$ref": "#/definitions/galleryRequestProcessGallery"
            }
          }
        ],
        "tags": [
          "ServiceGallery"
        ]
      }
    }
  },
  "definitions": {
    "galleryErrorSubProcess": {
      "type": "object",
      "properties": {
        "code": {
          "type": "integer",
          "format": "int32"
        },
        "message": {
          "type": "string"
        }
      }
    },
    "galleryGallery": {
      "type": "object",
      "properties": {
        "id": {
          "type": "string",
          "format": "int64"
        },
        "image": {
          "type": "string"
        },
        "profile_image": {
          "type": "string"
        },
        "status_id": {
          "type": "string",
          "format": "int64"
        },
        "created_by": {
          "type": "string",
          "format": "int64"
        },
        "created_at": {
          "type": "string",
          "format": "date-time"
        },
        "updated_at": {
          "type": "string",
          "format": "date-time"
        },
        "version": {
          "type": "string",
          "format": "int64"
        }
      }
    },
    "galleryProcess": {
      "type": "object",
      "properties": {
        "id": {
          "type": "string"
        },
        "name": {
          "type": "string"
        },
        "origin": {
          "type": "string"
        },
        "timestamp": {
          "type": "string",
          "format": "date-time"
        },
        "total_sequence": {
          "type": "integer",
          "format": "int32"
        },
        "user_id": {
          "type": "integer",
          "format": "int32"
        },
        "SubProcess": {
          "$ref": "#/definitions/gallerySubProcess"
        }
      }
    },
    "galleryRequestFindAllGallery": {
      "type": "object",
      "properties": {
        "gallery": {
          "$ref": "#/definitions/gallerySearchGallery"
        },
        "pagination": {
          "$ref": "#/definitions/galleryRequestPagination"
        },
        "key": {
          "type": "string"
        }
      }
    },
    "galleryRequestFindOneGallery": {
      "type": "object",
      "properties": {
        "gallery": {
          "$ref": "#/definitions/gallerySearchGallery"
        },
        "key": {
          "type": "string"
        }
      }
    },
    "galleryRequestPagination": {
      "type": "object",
      "properties": {
        "limit": {
          "type": "integer",
          "format": "int32"
        },
        "page_number": {
          "type": "integer",
          "format": "int32"
        },
        "offset": {
          "type": "integer",
          "format": "int32"
        }
      }
    },
    "galleryRequestProcessGallery": {
      "type": "object",
      "properties": {
        "process": {
          "$ref": "#/definitions/galleryProcess"
        },
        "gallery": {
          "$ref": "#/definitions/galleryGallery"
        }
      }
    },
    "galleryRequestRollbackGallery": {
      "type": "object",
      "properties": {
        "process": {
          "$ref": "#/definitions/galleryProcess"
        }
      }
    },
    "galleryResponseFindAllGallery": {
      "type": "object",
      "properties": {
        "gallery": {
          "type": "array",
          "items": {
            "$ref": "#/definitions/galleryGallery"
          }
        },
        "pagination": {
          "$ref": "#/definitions/galleryResponsePagination"
        }
      }
    },
    "galleryResponseFindOneGallery": {
      "type": "object",
      "properties": {
        "gallery": {
          "$ref": "#/definitions/galleryGallery"
        }
      }
    },
    "galleryResponsePagination": {
      "type": "object",
      "properties": {
        "total_page": {
          "type": "integer",
          "format": "int32"
        },
        "total_items": {
          "type": "integer",
          "format": "int32"
        },
        "limit": {
          "type": "integer",
          "format": "int32"
        },
        "page_number": {
          "type": "integer",
          "format": "int32"
        }
      }
    },
    "galleryResponseProcessGallery": {
      "type": "object",
      "properties": {
        "process": {
          "$ref": "#/definitions/galleryProcess"
        },
        "gallery": {
          "$ref": "#/definitions/galleryGallery"
        }
      }
    },
    "galleryResponseRollbackGallery": {
      "type": "object",
      "properties": {
        "process": {
          "$ref": "#/definitions/galleryProcess"
        },
        "gallery": {
          "$ref": "#/definitions/galleryGallery"
        }
      }
    },
    "gallerySearchGallery": {
      "type": "object",
      "properties": {
        "id": {
          "type": "array",
          "items": {
            "type": "string",
            "format": "int64"
          }
        },
        "image": {
          "type": "array",
          "items": {
            "type": "string"
          }
        },
        "profile_image": {
          "type": "array",
          "items": {
            "type": "string"
          }
        },
        "status_id": {
          "type": "array",
          "items": {
            "type": "string",
            "format": "int64"
          }
        },
        "created_by": {
          "type": "array",
          "items": {
            "type": "string",
            "format": "int64"
          }
        }
      }
    },
    "gallerySubProcess": {
      "type": "object",
      "properties": {
        "id": {
          "type": "string"
        },
        "name": {
          "$ref": "#/definitions/gallerySubProcessName"
        },
        "timestamp": {
          "type": "string",
          "format": "date-time"
        },
        "sequence_of": {
          "type": "integer",
          "format": "int32"
        },
        "is_success": {
          "type": "boolean",
          "format": "boolean"
        },
        "error": {
          "$ref": "#/definitions/galleryErrorSubProcess"
        }
      }
    },
    "gallerySubProcessName": {
      "type": "string",
      "enum": [
        "UNKNOWN",
        "CREATE_GALLERY",
        "UPDATE_GALLERY",
        "DELETE_GALLERY",
        "ROLLBACK_GALLERY"
      ],
      "default": "UNKNOWN"
    }
  }
}
